{
  "name": "ActivityPicture",
  "options": {
    "idInjection": false,
    "mysql": {
      "schema": "yepwego",
      "table": "ActivityPicture"
    },
    "relations": {
      "fkActivityHasAssetActivity1rel": {
        "model": "Activity",
        "type": "belongsTo",
        "foreignKey": "activityid"
      },
      "Picture": {
        "model": "Asset",
        "type": "belongsTo",
        "foreignKey": "assetId"
      }
    }
  },
  "properties": {
    "activityId": {
      "type": "Number",
      "required": true,
      "length": null,
      "precision": 10,
      "scale": 0,
      "id": 1,
      "mysql": {
        "columnName": "activityId",
        "dataType": "int",
        "dataLength": null,
        "dataPrecision": 10,
        "dataScale": 0,
        "nullable": "N"
      }
    },
    "assetId": {
      "type": "Number",
      "required": true,
      "length": null,
      "precision": 10,
      "scale": 0,
      "id": 2,
      "mysql": {
        "columnName": "assetId",
        "dataType": "int",
        "dataLength": null,
        "dataPrecision": 10,
        "dataScale": 0,
        "nullable": "N"
      }
    },
    "addedBy": {
      "type": "Number",
      "required": false,
      "length": null,
      "precision": 10,
      "scale": 0,
      "id": 2,
      "mysql": {
        "columnName": "addedBy",
        "dataType": "int",
        "dataLength": null,
        "dataPrecision": 10,
        "dataScale": 0,
        "nullable": "Y"
      }
    }
  }
}