{
    "name": "Storage",
    "plural": "storage",
    "base": "Model",
    "idInjection": true,
    "options": {
      "validateUpsert": true
    },
    "properties": {},
    "validations": [],
    "relations": {},
    "acls": [],
    "methods": {}
  }